…
## Usage

### GitHub Info

``` r
myRepo <- GitHubRepo$new("olsrr", "rsquaredacademy")
myRepo$get_stats()
#> # A tibble: 1 x 3
#>   stars issues forks
#>   <int>  <int> <int>
#> 1    77     26    11
myRepo$get_issues()
#> # A tibble: 26 x 4
#>    date       number author        title                                   
#>    <date>      <int> <chr>         <chr>                                   
#>  1 2019-06-20    133 aravindhebba~ Cook's distance chart threshold         
#>  2 2018-12-27    129 aravindhebba~ Bonferroni outlier test                 
#>  3 2018-12-24    126 aravindhebba~ Heteroskedasticity corrected covariance~
#>  4 2018-12-24    125 aravindhebba~ Test linear hypothesis                  
#>  5 2018-12-24    124 aravindhebba~ Ceres plot                              
#>  6 2018-12-22    123 aravindhebba~ Power transformations                   
#>  7 2018-12-22    122 aravindhebba~ Box Tidwell transformation              
#>  8 2018-12-22    121 aravindhebba~ Box Cox transformation                  
#>  9 2018-12-21    120 aravindhebba~ Wald test                               
#> 10 2018-12-21    119 aravindhebba~ Reset test                              
#> # ... with 16 more rows
…
``` r
get_status_travis("olsrr", "rsquaredacademy")
#> [1] "Failure"
get_status_appveyor("olsrr", "rsquaredacademy")
#> [1] "failed"
get_code_coverage("olsrr", "rsquaredacademy")
#> [1] "82.83485"
```

### Stack Overflow Questions

``` r
get_so_questions("dplyr")
#> # A tibble: 30 x 6
#>    date       title               owner   answered views link              
#>    <date>     <chr>               <chr>   <lgl>    <int> <chr>             
#>  1 2019-07-09 Adding multiple co~ Moohan  FALSE        5 https://stackover~
#>  2 2017-12-27 dplyr Summarise im~ stacki~ TRUE        63 https://stackover~
#>  3 2019-07-09 Transform table pe~ "thoma~ FALSE       24 https://stackover~
#>  4 2019-07-09 Plotting graphs li~ Moon    FALSE       16 https://stackover~
#>  5 2019-07-09 dplyr: change vari~ MCS     FALSE       22 https://stackover~
#>  6 2019-07-09 Extracting part of~ Nart R~ FALSE       42 https://stackover~
#>  7 2019-07-09 Filtering on a Col~ Jonath~ TRUE        33 https://stackover~
#>  8 2019-07-02 Weird grouping err~ massis~ FALSE       43 https://stackover~
#>  9 2019-07-07 List of data frame~ Emman   TRUE        53 https://stackover~
#> 10 2019-07-09 Is there a functio~ Hanif ~ TRUE        30 https://stackover~
#> # ... with 20 more rows
```
…
