Retrieve Package Information • pkginfo
…
Usage

GitHub Info

myRepo <- GitHubRepo$new("olsrr", "rsquaredacademy")
myRepo$get_stats()
#> # A tibble: 1 x 3
#>   stars issues forks
#>   <int>  <int> <int>
#> 1    77     26    11
myRepo$get_issues()
#> # A tibble: 26 x 4
#>    date       number author        title                                   
#>    <date>      <int> <chr>         <chr>                                   
#>  1 2019-06-20    133 aravindhebba~ Cook's distance chart threshold         
#>  2 2018-12-27    129 aravindhebba~ Bonferroni outlier test                 
#>  3 2018-12-24    126 aravindhebba~ Heteroskedasticity corrected covariance~
#>  4 2018-12-24    125 aravindhebba~ Test linear hypothesis                  
#>  5 2018-12-24    124 aravindhebba~ Ceres plot                              
#>  6 2018-12-22    123 aravindhebba~ Power transformations                   
#>  7 2018-12-22    122 aravindhebba~ Box Tidwell transformation              
#>  8 2018-12-22    121 aravindhebba~ Box Cox transformation                  
#>  9 2018-12-21    120 aravindhebba~ Wald test                               
#> 10 2018-12-21    119 aravindhebba~ Reset test                              
#> # ... with 16 more rows
…
Build Status

get_status_travis("olsrr", "rsquaredacademy")
#> [1] "Failure"
get_status_appveyor("olsrr", "rsquaredacademy")
#> [1] "failed"
get_code_coverage("olsrr", "rsquaredacademy")
#> [1] "82.83485"

Stack Overflow Questions

get_so_questions("dplyr")
#> # A tibble: 30 x 6
#>    date       title               owner   answered views link              
#>    <date>     <chr>               <chr>   <lgl>    <int> <chr>             
#>  1 2019-07-02 Adding new column ~ Silvic~ FALSE        7 https://stackover~
#>  2 2019-07-02 Trying to filter b~ Johnny~ FALSE        8 https://stackover~
#>  3 2019-07-02 How to fix the err~ zqin    TRUE        11 https://stackover~
#>  4 2019-07-02 Median number of o~ aelhak  TRUE        31 https://stackover~
#>  5 2019-07-02 Linking groups in R Viitama FALSE       54 https://stackover~
#>  6 2019-07-02 How to extract an ~ user11~ FALSE       28 https://stackover~
#>  7 2019-07-02 Weird grouping err~ massis~ FALSE       33 https://stackover~
#>  8 2019-07-01 Convert from row v~ Elr Ma~ TRUE        23 https://stackover~
#>  9 2019-07-01 Rolling count of d~ Amleto  TRUE        56 https://stackover~
#> 10 2019-07-02 If value exists in~ Zcela ~ TRUE        43 https://stackover~
#> # ... with 20 more rows
…
