Retrieve GitHub information. — github_info • pkginfo
…
# get details of open issues
get_gh_issues("dplyr", "tidyverse")
#> # A tibble: 30 x 4
#>    date       number author      title                                          
#>    <date>      <int> <chr>       <chr>                                          
#>  1 2019-07-03   4460 DavisVaugh~ False positive implicit NA warning with factor~
#>  2 2019-07-02   4459 bschneidr   No longer able to use case_when() in rename_al~
#>  3 2019-07-01   4457 dhicks      Gender sex                                     
#>  4 2019-07-01   4456 dhicks      "Confusing/offensive use of \"gender\" in `sta~
#>  5 2019-07-01   4455 dhicks      null vehicles in `starwars` dataset constructi~
#>  6 2019-06-29   4453 krlmlr      WIP: Fix character encoding problems           
#>  7 2019-06-29   4452 krlmlr      Review documentation for naming in scoped func~
#>  8 2019-06-29   4451 ajkroeg     modify() within group_by() in 0.8.2 not workin~
#>  9 2019-06-29   4450 krlmlr      Move responsibility of an eval_tidy() call     
#> 10 2019-06-27   4446 rcorty      bind_rows drops names of list columns          
#> # ... with 20 more rows
…
# get releases
get_gh_releases("dplyr", "tidyverse")
#> # A tibble: 24 x 4
#>    tag      date       title         prerelease
#>    <chr>    <date>     <chr>         <lgl>     
#>  1 v0.8.2   2019-07-01 dplyr 0.8.2   FALSE     
#>  2 v0.8.1   2019-05-17 dplyr 0.8.1   FALSE     
#>  3 v0.8.0.1 2019-02-15 dplyr 0.8.0.1 FALSE     
#>  4 v0.8.0   2019-02-15 dplyr 0.8.0   FALSE     
#>  5 v0.7.6   2018-10-26 dplyr 0.7.6   FALSE     
#>  6 v0.7.5   2018-05-22 dplyr 0.7.5   FALSE     
#>  7 v0.7.4   2017-09-29 dplyr 0.7.4   FALSE     
#>  8 v0.7.3   2017-09-29 dplyr 0.7.3   FALSE     
#>  9 v0.7.2   2017-07-28 dplyr 0.7.2   FALSE     
#> 10 v0.7.1   2017-06-22 dplyr 0.7.1   FALSE     
#> # ... with 14 more rows
…
